Monte Carlo Simulation mit historischen Zeitreihen
…
Jhrliche Renditen

# Calculate yearly returns
yearly_data <-
  daily_ts %>%
  tq_transmute(select = close,
               mutate_fun = periodReturn,
               period = "yearly",
               col_rename = "return")

# Print data
print(yearly_data)

## # A tibble: 28 x 2
##    date        return
##    <date>       <dbl>
##  1 1993-12-31  0.0605
##  2 1994-12-30 -0.0221
##  3 1995-12-29  0.349 
##  4 1996-12-31  0.201 
##  5 1997-12-31  0.314 
##  6 1998-12-31  0.270 
##  7 1999-12-31  0.191 
##  8 2000-12-29 -0.107 
##  9 2001-12-31 -0.129 
## 10 2002-12-31 -0.228 
## # ... with 18 more rows
…
Wachstum der Einmaleinlage

# Calculate the growth of a one-time investment over time
investment = 10000

yearly_data <- 
  yearly_data %>% 
  mutate(return_add1 = return + 1,
         cp_return_add1 = cumprod(return_add1),
         growth = cp_return_add1 * investment)
# Print data
yearly_data

## # A tibble: 28 x 5
##    date        return return_add1 cp_return_add1 growth
##    <date>       <dbl>       <dbl>          <dbl>  <dbl>
##  1 1993-12-31  0.0605       1.06            1.06 10605.
##  2 1994-12-30 -0.0221       0.978           1.04 10370.
##  3 1995-12-29  0.349        1.35            1.40 13994.
##  4 1996-12-31  0.201        1.20            1.68 16807.
##  5 1997-12-31  0.314        1.31            2.21 22091.
##  6 1998-12-31  0.270        1.27            2.81 28065.
##  7 1999-12-31  0.191        1.19            3.34 33428.
##  8 2000-12-29 -0.107        0.893           2.99 29858.
##  9 2001-12-31 -0.129        0.871           2.60 26014.
## 10 2002-12-31 -0.228        0.772           2.01 20081.
## # ... with 18 more rows
…
